2017-03-10 10:51:05.4723|ERROR|DAL.MedicineAccessDAL.SearchHelpDAL|Error in getting recommendations for Manufacturer:agp At: 3/10/2017 10:51:05 AM Due to Invalid column name 'SaltName'.
2017-03-10 10:51:30.7997|ERROR|DAL.MedicineAccessDAL.SearchHelpDAL|Error in getting recommendations for Manufacturer:pop At: 3/10/2017 10:51:30 AM Due to Invalid column name 'SaltName'.
2017-03-10 10:52:29.7522|ERROR|DAL.MedicineAccessDAL.SearchHelpDAL|Error in getting recommendations for Manufacturer:pop At: 3/10/2017 10:52:29 AM Due to Invalid column name 'SaltName'.
